Task 7
…
Historic Pennsylvania Annual Financial Report Data

Dataset found at: https://www.kaggle.com/kaggleray/afrdatapa

From website: Pennsylvania requires all school districts, career and technology centers, and charter schools to report an Annual Financial Report. This dataset aims to consolidate and analyze this data. I want people to be able to see how their own school district is doing in relation to other districts in the Commonwealth.

How have the school budgets changed over the years?

PA_Finance1 <- read_excel("~/Desktop/Rachael School/MATH335/M335_SP20_Smith_Rach/Case_Study_04/Finances AIE 9495-1516.xlsx", col_names = c("AUD", "SD", "County", date = 2015, 2014, 2013, 2012, 2011, 2010, 2009, 2008, 2007, 2006, 2005, 2004, 2003, 2002, 2001, 2000, 1999, 1998, 1997, 1996, 1995, 1994), skip = 1)
PA_Finance1

## # A tibble: 506 x 25
##       AUD SD    County `2015` `2014` `2013` `2012` `2011` `2010` `2009` `2008`
##     <dbl> <chr> <chr>   <dbl>  <dbl>  <dbl>  <dbl>  <dbl>  <dbl>  <dbl>  <dbl>
##  1 1.12e8 Berm Adams  1.69e7 1.59e7 1.59e7 1.56e7 1.62e7 1.51e7 1.50e7 1.44e7
##  2 1.12e8 Cone Adams  3.61e7 3.39e7 3.22e7 3.20e7 3.19e7 3.09e7 2.92e7 2.81e7
##  3 1.12e8 Fair Adams  1.10e7 1.10e7 1.09e7 1.08e7 1.12e7 1.12e7 9.97e6 1.04e7
##  4 1.12e8 Gett Adams  3.94e7 3.61e7 3.57e7 3.38e7 3.36e7 3.32e7 3.23e7 3.21e7
##  5 1.12e8 Litt Adams  2.02e7 2.02e7 1.94e7 1.79e7 1.77e7 1.82e7 1.80e7 1.71e7
##  6 1.12e8 Uppe Adams  1.76e7 1.70e7 1.70e7 1.62e7 1.53e7 1.55e7 1.52e7 1.43e7
##  7 1.03e8 Alle Alleg 1.39e7 1.35e7 1.31e7 1.22e7 1.28e7 1.34e7 1.21e7 1.26e7
##  8 1.03e8 Avon Alleg 1.89e7 1.84e7 1.76e7 1.65e7 1.55e7 1.54e7 1.46e7 1.37e7
##  9 1.03e8 Bald Alleg 4.04e7 4.52e7 4.12e7 3.87e7 3.91e7 3.76e7 3.91e7 3.53e7
## 10 1.03e8 Beth Alleg 5.70e7 5.52e7 5.76e7 4.84e7 4.83e7 4.95e7 4.88e7 4.68e7
## #  with 496 more rows, and 14 more variables: `2007` <dbl>, `2006` <dbl>,
## #   `2005` <dbl>, `2004` <dbl>, `2003` <dbl>, `2002` <dbl>, `2001` <dbl>,
## #   `2000` <dbl>, `1999` <dbl>, `1998` <dbl>, `1997` <dbl>, `1996` <dbl>,
## #   `1995` <dbl>, `1994` <dbl>

PA_Finance1 %>% 
  group_by(County)

## # A tibble: 506 x 25
## # Groups:   County [68]
##       AUD SD    County `2015` `2014` `2013` `2012` `2011` `2010` `2009` `2008`
##     <dbl> <chr> <chr>   <dbl>  <dbl>  <dbl>  <dbl>  <dbl>  <dbl>  <dbl>  <dbl>
##  1 1.12e8 Berm Adams  1.69e7 1.59e7 1.59e7 1.56e7 1.62e7 1.51e7 1.50e7 1.44e7
##  2 1.12e8 Cone Adams  3.61e7 3.39e7 3.22e7 3.20e7 3.19e7 3.09e7 2.92e7 2.81e7
##  3 1.12e8 Fair Adams  1.10e7 1.10e7 1.09e7 1.08e7 1.12e7 1.12e7 9.97e6 1.04e7
##  4 1.12e8 Gett Adams  3.94e7 3.61e7 3.57e7 3.38e7 3.36e7 3.32e7 3.23e7 3.21e7
##  5 1.12e8 Litt Adams  2.02e7 2.02e7 1.94e7 1.79e7 1.77e7 1.82e7 1.80e7 1.71e7
##  6 1.12e8 Uppe Adams  1.76e7 1.70e7 1.70e7 1.62e7 1.53e7 1.55e7 1.52e7 1.43e7
##  7 1.03e8 Alle Alleg 1.39e7 1.35e7 1.31e7 1.22e7 1.28e7 1.34e7 1.21e7 1.26e7
##  8 1.03e8 Avon Alleg 1.89e7 1.84e7 1.76e7 1.65e7 1.55e7 1.54e7 1.46e7 1.37e7
##  9 1.03e8 Bald Alleg 4.04e7 4.52e7 4.12e7 3.87e7 3.91e7 3.76e7 3.91e7 3.53e7
## 10 1.03e8 Beth Alleg 5.70e7 5.52e7 5.76e7 4.84e7 4.83e7 4.95e7 4.88e7 4.68e7
## #  with 496 more rows, and 14 more variables: `2007` <dbl>, `2006` <dbl>,
## #   `2005` <dbl>, `2004` <dbl>, `2003` <dbl>, `2002` <dbl>, `2001` <dbl>,
## #   `2000` <dbl>, `1999` <dbl>, `1998` <dbl>, `1997` <dbl>, `1996` <dbl>,
## #   `1995` <dbl>, `1994` <dbl>
…
